{
  "artist_list": [
    {
      "artist": {
        "artist_id": 24748742,
        "artist_name": "Lizzo",
        "artist_country": "US",
        "artist_rating": 85,
        "artist_twitter_url": "",
        "updated_time": "2016-07-20T10:28:53Z"
      }
    },
    {
      "artist": {
        "artist_id": 15507,
        "artist_name": "Blake Shelton",
        "artist_country": "US",
        "artist_rating": 70,
        "artist_twitter_url": "https://twitter.com/BLAKESHELTON",
        "updated_time": "2013-11-05T11:25:24Z"
      }
    },
    {
        "artist": {
          "artist_id": 27658352,
          "artist_name": "Luke Combs",
          "artist_country": "US",
          "artist_rating": 72,
          "artist_twitter_url": "",
          "updated_time": "2014-03-15T20:45:39Z"
        }
      },
    {
      "artist": {
        "artist_id": 259675,
        "artist_name": "Taylor Swift",
        "artist_country": "US",
        "artist_rating": 99,
        "artist_twitter_url": "https://twitter.com/taylorswift13",
        "updated_time": "2013-11-05T11:27:51Z"
      }
    },
    {
      "artist": {
        "artist_id": 28444515,
        "artist_name": "Post Malone",
        "artist_country": "US",
        "artist_rating": 97,
        "artist_twitter_url": "",
        "updated_time": "2015-02-19T12:08:43Z"
      }
    },
    {
      "artist": {
        "artist_id": 33258132,
        "artist_name": "Lewis Capaldi",
        "artist_country": "US",
        "artist_rating": 86,
        "artist_twitter_url": "",
        "updated_time": "2017-03-11T22:33:14Z"
      }
    },
    {
      "artist": {
        "artist_id": 38620990,
        "artist_name": "Ed Sheeran",
        "artist_country": "GB",
        "artist_rating": 97,
        "artist_twitter_url": "https://twitter.com/edsheeran",
        "updated_time": "2019-05-29T08:45:18Z"
      }
    },
    {
      "artist": {
        "artist_id": 213992,
        "artist_name": "Jonas Brothers",
        "artist_country": "US",
        "artist_rating": 87,
        "artist_twitter_url": "https://twitter.com/jonasbrothers",
        "updated_time": "2015-12-09T17:42:53Z"
      }
    },
    {
      "artist": {
        "artist_id": 25312460,
        "artist_name": "Lauren Daigle",
        "artist_country": "US",
        "artist_rating": 73,
        "artist_twitter_url": "",
        "updated_time": "2016-07-03T10:44:20Z"
      }
    },
    {
      "artist": {
        "artist_id": 29247465,
        "artist_name": "Billie Eilish",
        "artist_country": "US",
        "artist_rating": 100,
        "artist_twitter_url": "",
        "updated_time": "2015-12-19T12:38:24Z"
      }
    },
    {
      "artist": {
        "artist_id": 33396340,
        "artist_name": "Maren Morris",
        "artist_country": "US",
        "artist_rating": 67,
        "artist_twitter_url": "",
        "updated_time": "2017-04-28T11:22:59Z"
      }
    },
    {
      "artist": {
        "artist_id": 32862902,
        "artist_name": "Ben Platt",
        "artist_country": "US",
        "artist_rating": 62,
        "artist_twitter_url": "",
        "updated_time": "2016-12-02T19:36:11Z"
      }
    },
    {
      "artist": {
        "artist_id": 135957,
        "artist_name": "Panic! At the Disco",
        "artist_country": "US",
        "artist_rating": 91,
        "artist_twitter_url": "https://twitter.com/panicatthedisco",
        "updated_time": "2013-11-05T11:27:30Z"
      }
    },
    {
      "artist": {
        "artist_id": 33491439,
        "artist_name": "Halsey",
        "artist_country": "US",
        "artist_rating": 92,
        "artist_twitter_url": "",
        "updated_time": "2017-04-28T14:31:04Z"
      }
    },
    {
      "artist": {
        "artist_id": 365957,
        "artist_name": "Lady Antebellum",
        "artist_country": "US",
        "artist_rating": 71,
        "artist_twitter_url": "",
        "updated_time": "2015-12-01T19:39:07Z"
      }
    },
    {
      "artist": {
        "artist_id": 24753998,
        "artist_name": "Camila Cabello",
        "artist_country": "US",
        "artist_rating": 90,
        "artist_twitter_url": "",
        "updated_time": "2017-05-18T10:00:14Z"
      }
    },
    {
      "artist": {
        "artist_id": 27340182,
        "artist_name": "Gabby Barrett",
        "artist_country": "US",
        "artist_rating": 43,
        "artist_twitter_url": "",
        "updated_time": "2014-03-09T17:21:12Z"
      }
    },
    {
      "artist": {
        "artist_id": 33491699,
        "artist_name": "Selena Gomez",
        "artist_country": "US",
        "artist_rating": 89,
        "artist_twitter_url": "https://twitter.com/selenagomez",
        "updated_time": "2017-04-28T23:15:13Z"
      }
    },
    {
      "artist": {
        "artist_id": 27840,
        "artist_name": "Maroon 5",
        "artist_country": "US",
        "artist_rating": 95,
        "artist_twitter_url": "https://twitter.com/maroon5",
        "updated_time": "2017-02-04T03:20:51Z"
      }
    },
    {
      "artist": {
        "artist_id": 40775194,
        "artist_name": "Keith Urban feat. Eric Church",
        "artist_country": "US",
        "artist_rating": 9,
        "artist_twitter_url": "",
        "updated_time": "2019-10-22T17:49:55Z"
      }
    }
  ]
}
